# Vin   divVin   Vout   divVout
116e-3  20e-3    1.14   200e-3
200e-3  50e-3    2.00   500e-3
394e-3  50e-3    3.88   500e-3
772e-3  100e-3   7.68   1
1.58    500e-3   15.4   5
3.16    500e-3   27.2   5
6.24    1        27.2   5
# 13.1    2        27.4   5
2.82    500e-3   25.8   5
2.34    500e-3   22.2   5
1.94    200e-3   18.8   5
1.11    200e-3   10.9   2
560e-3  100e-3   5.52   1
2.94    500e-3   26.8   5
3.78    500e-3   27.4   5
4.44    1        27.4   5
5.56    1        27.4   5
5.04    1        27.6   5