# R     dR      V+      divV+   Vout    divVout     fH       dfH
53.0e3  0.4e3   124e-3  20e-3   26.8    5           10.28e3  0.2e3
25.5e3  0.2e3   124e-3  20e-3   13.9    2           19.03e3  0.3e3
10.96e3 0.09e3  121e-3  20e-3   6.04    1           42.8e3   0.9e3
# 523     4       126e-3  20e-3   406e-3  50e-3       680e6    8e6
