# 5.a
# tau = (dicesa 1) - (discesa 2), erroe su tau è di quanto si può spostare
# f             df      Vin     divVin          Vout            divVout         tau             dtau
# 100.1           0.4     528e-3  100e-3          168e-3          50e-3           -2.520e-3       0.2e-3
1.018e3         0.008e3 532e-3  100e-3          1.68            200e-3          -298e-6         4e-6
10.17e3         0.02e3  508e-3  100e-3          4.88            1               -45.2e-6        0.2e-6
101.5e3         0.4e3   508e-3  100e-3          4.68            1               -5.600e-6       0.004e-6
1.010e6         0.003e6 476e-3  100e-3          976e-3          200e-3          -791e-9         3e-9
435.2e3         0.4e3   512e-3  100e-3          2.30            500e-3          -1629e-9        6e-9
43.86e3         0.06e3  504e-3  100e-3          5.0             1               -11.9e-6        0.2e-6
4.35e3          0.03e3  516e-3  100e-3          4.20            1               -92.00e-6       0.04e-6
436             3       528e-3  100e-3          712e-3          100e-3          -628e-6         4e-6
2.02e3          0.008e3 524e-3  100e-3          2.84            500e-3          -168e-6         3e-6
20.36e3         0.04e3  508e-3  100e-3          5               1               -24.20e-6       0.1e-6
201.9e3         0.7e3   516e-3  100e-3          3.88            1               -3.148e-6       0.03e-6
