# 7z.txt (ovvero preliminari del punto 7)
# f[Hz]  df[Hz]  Vin[V]      scala[V]  Vout[V]  scala[V]
94.6     0.2     20.0        5         3.66     500e-3
960      2       20.0        5         9.28     2
9.57e3   0.05e3  20.2        5         7.2      2
95.1e3   0.8e3   20.2        5         1.02     200e-3
950e3    2e3     20.2        5         82.4e-3  20e-3
446e3    2e3     20.4        5         210e-3   50e-3
203.3e3  1.0e3   20.2        5         480e-3   100e-3
44.5e3   0.2e3   20.0        5         2.20     500e-3
20.4e3   0.2e3   20.0        5         4.36     1
4.02e3   0.01e3  20.2        5         9.04     2
2.01e3   0.03e3  20.2        5         9.52     2
385      1       20.0        5         8.24     2
202.4    0.5     20.0        5         6.40     2
130.3    0.3     20.0        5         4.76     1
40.3     0.1     20.0        5         1.70     500e-3
60.4     0.2     20.0        5         2.46     500e-3
20.05    0.05    20.0        5         840e-3   200e-3
9.53     0.05    20.0        5         394e-3   50e-3
2.03     0.01    20.0        5         88.8e-3  20e-3
4.05     0.01    20.0        5         174e-3   50e-3
1.672e3  0.005e3 20.0        5         9.36     2
1.242e3  0.005e3 20.0        5         9.36     2
2.82e3   0.02e3  20.0        5         9.36     2
670      1       20.0        5         9.04     2
