# lambda = 577 nm
# V dV [V], I dI [pA]
0.186  0.001 649  3
0.214  0.002 574  3
0.242  0.002 502  2
0.261  0.002 459  2
0.279  0.002 415  2
0.310  0.002 352  2
0.330  0.002 314  2
0.377  0.002 234.5  1.4
0.400  0.002 200.9  1.3
0.439  0.002 152  1
0.456  0.003 133  1
0.483  0.003 107  1
0.513  0.003 81  1
0.537  0.003 64  1
0.555  0.003 53  1
0.576  0.003 41  1
0.605  0.003 27  1
0.635  0.003 15  1
0.666  0.004 6  1
0.690  0.004 0  1
0.721  0.004 -4  1
0.766  0.004 -6  1
0.799  0.004 -8  1
0.833  0.004 -7  1
0.852  0.004 -7  1
0.910  0.005 -8  1
0.969  0.005 -8  1
1.011  0.005 -9  1
1.076  0.006 -9  1
1.121  0.006 -8  1
1.156  0.006 -9  1
1.180  0.006 -9  1
1.204  0.006 -9  1
1.293  0.007 -10  1
