# lambda = 546 nm
# V dV [V], I dI [pA]
0.285  0.002 416  2
0.314  0.002 368  2
0.343  0.002 322  2
0.371  0.002 280  2
0.405  0.002 235.3  1.4
0.448  0.003 185  1
0.479  0.003 153  1
0.500  0.003 134  1
0.533  0.003 108  1
0.561  0.003 88  1
0.592  0.003 69  1
0.619  0.003 55  1
0.645  0.003 42  1
0.687  0.004 25  1
0.703  0.004 20  1
0.736  0.004 10  1
0.765  0.004 3  1
0.776  0.004 0  1
0.802  0.004 -3  1
0.832  0.004 -5  1
0.867  0.004 -6  1
0.893  0.005 -7  1
0.917  0.005 -7  1
0.953  0.005 -7  1
0.986  0.005 -8  1
1.029  0.005 -8  1
1.080  0.006 -9  1
1.132  0.006 -9  1
1.224  0.006 -10  1
1.297  0.007 -10  1
