# R      dR         V           dV
5.51e3   0.05e3     84e-3       3e-3
9.87e3   0.08e3     96e-3       4e-3
21.5e3   0.2e3      130e-3      5e-3
33.1e3   0.3e3      152e-3      6e-3
46.8e3   0.4e3      176e-3      7e-3
97.9e3   0.8e3      272e-3      14e-3
119.2e3  0.9e3      360e-3      18e-3
152.4e3  1.1e3      420e-3      21e-3
333e3    3e3        480e-3      24e-3
566e3    5e3        590e-3      30e-3
673e3    6e3        690e-3      35e-3
833e3    7e3        700e-3      35e-3
983e3    8e3        720e-3      36e-3
