# R       dR            V        dV
1.230e3   0.010e3       45e-3    4e-3
3.27e3    0.03e3        59.7e-3  4e-3
5.59e3    0.06e3        64e-3    5e-3
9.88e3    0.08e3        78e-3    5e-3
33.0e3    0.3e3         114e-3   6e-3
57.6e3    0.6e3         166e-3   8e-3
80.8e3    0.7e3         182e-3   10e-3
97.5e3    0.8e3         230e-3   13e-3
117.1e3   1.0e3         240e-3   15e-3
148.8e3   1.2e3         286e-3   18e-3
179.8e3   1.5e3         295e-3   18e-3
218e3     2e3           340e-3   22e-3
