# tau = (salita 1) - (salita 2)
# f     df      Vin     divVin  Vout    divVout    tau       dtau
10.08   0.02    10.1    2       904e-3  200e-3     -208e-6   30e-6
47.76   0.03    10.2    2       912e-3  200e-3     -276e-6   10e-6
100.8   0.2     10.2    2       904e-3  200e-3     -296e-6   8e-6
484.5   0.3     10.3    2       728e-3  100e-3     -288e-6   4e-6
1.024e3 0.002e3 10.2    2       444e-3  100e-3     -245e-6   2e-6
179.5   0.4     10.3    2       880e-3  200e-3     -304e-6   4e-6
261.5   0.6     10.3    2       848e-3  200e-3     -300e-6   4e-6
358.7   0.5     10.3    2       808e-3  200e-3     -288e-6   4e-6
626.6   0.7     10.2    2       648e-3  100e-3     -270e-6   2e-6
800.0   0.8     10.2    2       552e-3  100e-3     -260e-6   4e-6
719.4   0.8     10.2    2       596e-3  100e-3     -270e-6   4e-6
909.9   0.9     10.2    2       496e-3  100e-3     -248e-6   4e-6