Version 4
SHEET 1 880 680
WIRE 240 16 240 -16
WIRE 400 80 384 80
WIRE 496 80 480 80
WIRE 32 112 -160 112
WIRE 32 144 -96 144
WIRE 256 160 208 160
WIRE 384 160 384 80
WIRE 384 160 336 160
WIRE 400 160 384 160
WIRE 32 176 -32 176
WIRE 496 176 496 80
WIRE 496 176 464 176
WIRE 528 176 496 176
WIRE 400 192 384 192
WIRE 32 208 0 208
WIRE -32 224 -32 176
WIRE -32 224 -96 224
WIRE -240 272 -240 112
WIRE 0 272 0 208
WIRE 176 272 176 192
WIRE 384 272 384 192
FLAG 0 272 0
FLAG 176 272 0
FLAG 384 272 0
FLAG 528 176 OUT
IOPIN 528 176 Out
FLAG 128 112 VCC
FLAG 432 144 VCC
FLAG 128 208 VEE
FLAG 432 208 VEE
FLAG 240 16 0
FLAG 320 -16 VCC
FLAG 160 -16 VEE
FLAG -240 272 0
SYMBOL INA114-OPAMP 160 160 R0
SYMATTR InstName X1
SYMBOL res -112 128 R0
WINDOW 0 -37 37 Left 2
WINDOW 3 -32 67 Left 2
SYMATTR InstName R1
SYMATTR Value 1k
SYMBOL res 352 144 R90
WINDOW 0 0 56 VBottom 2
WINDOW 3 32 56 VTop 2
SYMATTR InstName R2
SYMATTR Value 4.7k
SYMBOL Opamps\\UniversalOpamp2 432 176 R0
SYMATTR SpiceModel AD708
SYMATTR InstName X2
SYMATTR Value AD708
SYMBOL res 496 64 R90
WINDOW 0 -3 79 VBottom 2
WINDOW 3 -31 34 VTop 2
SYMATTR InstName R3
SYMATTR Value 68k
SYMBOL voltage 336 -16 R90
WINDOW 0 -32 56 VBottom 2
WINDOW 3 32 56 VTop 2
WINDOW 123 0 0 Left 0
WINDOW 39 0 0 Left 0
SYMATTR InstName V1
SYMATTR Value 5
SYMBOL voltage 256 -16 R90
WINDOW 0 -32 56 VBottom 2
WINDOW 3 32 56 VTop 2
WINDOW 123 0 0 Left 0
WINDOW 39 0 0 Left 0
SYMATTR InstName V2
SYMATTR Value 5
SYMBOL voltage -144 112 R90
WINDOW 0 -65 58 VBottom 2
WINDOW 3 -39 56 VBottom 2
WINDOW 123 0 0 Left 0
WINDOW 39 0 0 Left 0
SYMATTR InstName V3
SYMATTR Value AC 1
TEXT 336 360 Left 2 !.include AD708.cir
TEXT -128 360 Left 2 !.ac dec 100 0.1 10meg
