2487 1898
2538 1877
2579 1841
2623 1802
2663 1753
2699 1702
2723 1642
2734 1585
2739 1525
2739 1462
2706 1332
2669 1258
2640 1196
2595 1137
2540 1089
2464 1051
2370 1023
2279 1011
2181 1019
2105 1037
2033 1069
1963 1116
1891 1173
1854 1238
1821 1306
1810 1381
1804 1461
1819 1546
1849 1626
