2472 1865
2521 1835
2578 1788
2630 1721
2681 1651
2720 1556
2733 1479
2716 1326
2688 1230
2641 1141
2582 1080
2511 1036
2412 986
2317 963
2222 959
2145 974
2080 999
2031 1026
1985 1069
1932 1128
1897 1180
1877 1228
1832 1551
1856 1603
1890 1645
1930 1694
