2511 1903
2587 1858
2645 1809
2698 1740
2740 1659
2767 1587
2781 1515
2761 1344
2738 1269
2698 1170
2660 1114
2612 1059
2548 1004
2461 970
2381 956
2301 949
2208 951
2121 968
2040 999
1973 1036
1913 1079
1860 1143
1827 1201
1805 1251
1812 1551
1837 1608
1872 1663
1910 1709
