2488 1863
2536 1826
2597 1773
2634 1712
2670 1653
2699 1588
2705 1536
2663 1240
2614 1164
2559 1104
2499 1061
2405 1020
2320 1006
2222 995
2122 1017
2037 1058
1974 1099
1921 1159
1887 1214
1863 1267
1831 1555
1853 1627
1881 1671
1914 1721
1950 1749
