2512 1882
2597 1829
2653 1772
2700 1719
2735 1644
2751 1565
2759 1491
2736 1347
2706 1262
2654 1168
2602 1112
2553 1063
2488 1019
2411 987
2332 976
2255 979
2178 989
2111 1009
2038 1041
1989 1076
1918 1131
1877 1178
1833 1248
1813 1574
1840 1637
1866 1689
1915 1746
