2518    1837
2540    1811
2562    1783
2582    1755
2608    1718
2635    1682
2654    1632
2661    1589
2621    1325
2601    1291
2561    1244
2522    1214
1951    1245
1977    1218
2000    1196
1924    1279
1901    1319
1861    1566
1866    1606
1879    1653
1899    1694
1922    1727
1948    1759
1978    1795
2491    1192
