2567    1836
2584    1817
2605    1784
2619    1754
2634    1720
2649    1688
2660    1648
2669    1608
2671    1571
2495    1234
2462    1211
2435    1198
2389    1175
2343    1165
2118    1170
2076    1190
2036    1210
1999    1240
1954    1288
1935    1316
1921    1339
1874    1457
1872    1502
1871    1543
1872    1576
1876    1614
1883    1646
1899    1689
1919    1725
