2558    1787
2573    1734
2577    1666
2555    1598
2525    1542
2486    1496
2437    1458
2363    1426
2142    1461
2099    1497
2066    1540
2044    1596
2032    1654
2396    1436
2184    1439
2502    1516
2541    1568
2567    1631
