-0.03772        0.04
-0.03768        0.04
-0.03764        0.06
-0.0376         0.06
-0.03756        0.04
-0.03752        0.06
-0.03748        0.04
-0.03744        0.04
-0.0374         0.02
-0.03736        0.02
-0.03732        0
-0.03728        0.02
-0.03724        0.02
-0.0372         0.02
-0.03716        0.02
-0.03712        0.04
-0.03708        0.04
-0.03704        0.04
-0.037  0.06
-0.03696        0.06
-0.03692        0.06
-0.03688        0.04
-0.03684        0.04
-0.0368         0.02
-0.03676        0.02
-0.03672        0
-0.03668        0
-0.03664        0.02
-0.0366         0.02
-0.03656        0.02
-0.03652        0.04
-0.03648        0.04
-0.03644        0.04
-0.0364         0.06
-0.03636        0.06
-0.03632        0.06
-0.03628        0.04
-0.03624        0.02
-0.0362         0.02
-0.03616        0
-0.03612        0.02
-0.03608        0.02
-0.03604        0.02
-0.036  0
-0.03596        0.02
-0.03592        0.04
-0.03588        0.04
-0.03584        0.06
-0.0358         0.06
-0.03576        0.06
-0.03572        0.06
-0.03568        0.06
-0.03564        0.04
-0.0356         0.02
-0.03556        0.02
-0.03552        0.02
-0.03548        0.02
-0.03544        0.02
-0.0354         0
-0.03536        0.02
-0.03532        0.04
-0.03528        0.04
-0.03524        0.04
-0.0352         0.04
-0.03516        0.06
-0.03512        0.04
-0.03508        0.04
-0.03504        0.04
-0.035  0.04
-0.03496        0.02
-0.03492        0.02
-0.03488        0
-0.03484        0
-0.0348         0.02
-0.03476        0
-0.03472        0.02
-0.03468        0.02
-0.03464        0.06
-0.0346         0.04
-0.03456        0.06
-0.03452        0.06
-0.03448        0.04
-0.03444        0.06
-0.0344         0.04
-0.03436        0.02
-0.03432        0.02
-0.03428        0.02
-0.03424        0
-0.0342         0
-0.03416        0
-0.03412        0.02
-0.03408        0.04
-0.03404        0.04
-0.034  0.04
-0.03396        0.06
-0.03392        0.06
-0.03388        0.06
-0.03384        0.06
-0.0338         0.04
-0.03376        0.04
-0.03372        0.02
-0.03368        0
-0.03364        0
-0.0336         -0.02
-0.03356        0
-0.03352        0
-0.03348        0.02
-0.03344        0.04
-0.0334         0.04
-0.03336        0.06
-0.03332        0.06
-0.03328        0.06
-0.03324        0.06
-0.0332         0.04
-0.03316        0.04
-0.03312        0.02
-0.03308        0
-0.03304        0
-0.033  0
-0.03296        0
-0.03292        0.02
-0.03288        0.02
-0.03284        0.02
-0.0328         0.04
-0.03276        0.06
-0.03272        0.06
-0.03268        0.06
-0.03264        0.06
-0.0326         0.06
-0.03256        0.06
-0.03252        0.04
-0.03248        0.02
-0.03244        0
-0.0324         0
-0.03236        0
-0.03232        0.02
-0.03228        0.02
-0.03224        0.02
-0.0322         0.04
-0.03216        0.04
-0.03212        0.04
-0.03208        0.06
-0.03204        0.06
-0.032  0.06
-0.03196        0.06
-0.03192        0.04
-0.03188        0.02
-0.03184        0
-0.0318         0
-0.03176        0
-0.03172        0
-0.03168        0
-0.03164        0.02
-0.0316         0.02
-0.03156        0.04
-0.03152        0.06
-0.03148        0.06
-0.03144        0.06
-0.0314         0.06
-0.03136        0.04
-0.03132        0.04
-0.03128        0.02
-0.03124        0.02
-0.0312         0
-0.03116        -0.02
-0.03112        0
-0.03108        0.02
-0.03104        0.02
-0.031  0.02
-0.03096        0.04
-0.03092        0.06
-0.03088        0.06
-0.03084        0.06
-0.0308         0.06
-0.03076        0.06
-0.03072        0.04
-0.03068        0.04
-0.03064        0
-0.0306         0.02
-0.03056        -0.02
-0.03052        -0.02
-0.03048        -0.02
-0.03044        0
-0.0304         0.02
-0.03036        0.02
-0.03032        0.06
-0.03028        0.06
-0.03024        0.06
-0.0302         0.06
-0.03016        0.06
-0.03012        0.04
-0.03008        0.04
-0.03004        0.04
-0.03   0
-0.02996        0
-0.02992        0
-0.02988        0
-0.02984        0
-0.0298         0
-0.02976        0.02
-0.02972        0.04
-0.02968        0.04
-0.02964        0.06
-0.0296         0.04
-0.02956        0.06
-0.02952        0.04
-0.02948        0.06
-0.02944        0
-0.0294         0.02
-0.02936        0
-0.02932        0
-0.02928        -0.02
-0.02924        0
-0.0292         0
-0.02916        0.02
-0.02912        0.04
-0.02908        0.04
-0.02904        0.06
-0.029  0.06
-0.02896        0.06
-0.02892        0.06
-0.02888        0.06
-0.02884        0.04
-0.0288         0.02
-0.02876        0.02
-0.02872        0
-0.02868        0
-0.02864        0
-0.0286         0.02
-0.02856        0.02
-0.02852        0.02
-0.02848        0.04
-0.02844        0.06
-0.0284         0.06
-0.02836        0.06
-0.02832        0.06
-0.02828        0.06
-0.02824        0.06
-0.0282         0.02
-0.02816        0.02
-0.02812        -0.02
-0.02808        0
-0.02804        0
-0.028  0
-0.02796        0.04
-0.02792        0.04
-0.02788        0.04
-0.02784        0.06
-0.0278         0.06
-0.02776        0.06
-0.02772        0.08
-0.02768        0.06
-0.02764        0.04
-0.0276         0.02
-0.02756        0.02
-0.02752        0.02
-0.02748        0
-0.02744        -0.02
-0.0274         0
-0.02736        0
-0.02732        0.02
-0.02728        0.04
-0.02724        0.04
-0.0272         0.06
-0.02716        0.06
-0.02712        0.06
-0.02708        0.06
-0.02704        0.04
-0.027  0.06
-0.02696        0.02
-0.02692        0.02
-0.02688        0
-0.02684        0
-0.0268         -0.04
-0.02676        0
-0.02672        0.02
-0.02668        0
-0.02664        0.04
-0.0266         0.06
-0.02656        0.08
-0.02652        0.08
-0.02648        0.06
-0.02644        0.06
-0.0264         0.04
-0.02636        0.04
-0.02632        0.02
-0.02628        -0.02
-0.02624        0
-0.0262         0
-0.02616        0
-0.02612        0
-0.02608        0.02
-0.02604        0.04
-0.026  0.06
-0.02596        0.06
-0.02592        0.06
-0.02588        0.06
-0.02584        0.06
-0.0258         0.04
-0.02576        0.04
-0.02572        0.02
-0.02568        -0.02
-0.02564        0
-0.0256         0
-0.02556        0
-0.02552        0
-0.02548        0.02
-0.02544        0.06
-0.0254         0.06
-0.02536        0.04
-0.02532        0.06
-0.02528        0.06
-0.02524        0.06
-0.0252         0.06
-0.02516        0.06
-0.02512        0.04
-0.02508        0
-0.02504        0
-0.025  0
-0.02496        0
-0.02492        0
-0.02488        0
-0.02484        0.02
-0.0248         0.04
-0.02476        0.06
-0.02472        0.06
-0.02468        0.06
-0.02464        0.08
-0.0246         0.06
-0.02456        0.04
-0.02452        0.04
-0.02448        0
-0.02444        0
-0.0244         -0.02
-0.02436        -0.02
-0.02432        -0.02
-0.02428        0
-0.02424        0.04
-0.0242         0.04
-0.02416        0.06
-0.02412        0.06
-0.02408        0.06
-0.02404        0.06
-0.024  0.06
-0.02396        0.06
-0.02392        0.06
-0.02388        0.04
-0.02384        0
-0.0238         -0.02
-0.02376        -0.02
-0.02372        -0.02
-0.02368        0
-0.02364        0
-0.0236         0.02
-0.02356        0.02
-0.02352        0.06
-0.02348        0.08
-0.02344        0.06
-0.0234         0.06
-0.02336        0.06
-0.02332        0.04
-0.02328        0.02
-0.02324        0.02
-0.0232         0
-0.02316        -0.02
-0.02312        0
-0.02308        0.02
-0.02304        0
-0.023  0
-0.02296        0.04
-0.02292        0.06
-0.02288        0.06
-0.02284        0.06
-0.0228         0.06
-0.02276        0.06
-0.02272        0.04
-0.02268        0.04
-0.02264        0
-0.0226         0
-0.02256        -0.02
-0.02252        -0.02
-0.02248        -0.02
-0.02244        0
-0.0224         0
-0.02236        0.02
-0.02232        0.06
-0.02228        0.06
-0.02224        0.08
-0.0222         0.06
-0.02216        0.08
-0.02212        0.06
-0.02208        0.06
-0.02204        0.04
-0.022  0.02
-0.02196        -0.02
-0.02192        -0.02
-0.02188        -0.02
-0.02184        0
-0.0218         0
-0.02176        0.04
-0.02172        0.04
-0.02168        0.06
-0.02164        0.06
-0.0216         0.08
-0.02156        0.08
-0.02152        0.06
-0.02148        0.06
-0.02144        0.04
-0.0214         0
-0.02136        0
-0.02132        0
-0.02128        -0.02
-0.02124        -0.02
-0.0212         0
-0.02116        0.02
-0.02112        0.04
-0.02108        0.06
-0.02104        0.06
-0.021  0.06
-0.02096        0.06
-0.02092        0.06
-0.02088        0.06
-0.02084        0.06
-0.0208         0.04
-0.02076        0
-0.02072        -0.02
-0.02068        -0.02
-0.02064        -0.04
-0.0206         -0.02
-0.02056        0
-0.02052        0.02
-0.02048        0.06
-0.02044        0.06
-0.0204         0.08
-0.02036        0.08
-0.02032        0.08
-0.02028        0.06
-0.02024        0.06
-0.0202         0.02
-0.02016        0
-0.02012        0
-0.02008        -0.02
-0.02004        -0.02
-0.02   -0.02
-0.01996        0
-0.01992        0.02
-0.01988        0.06
-0.01984        0.06
-0.0198         0.06
-0.01976        0.08
-0.01972        0.08
-0.01968        0.06
-0.01964        0.06
-0.0196         0.04
-0.01956        0
-0.01952        0.02
-0.01948        -0.02
-0.01944        -0.02
-0.0194         -0.02
-0.01936        -0.02
-0.01932        0.02
-0.01928        0.04
-0.01924        0.06
-0.0192         0.08
-0.01916        0.06
-0.01912        0.08
-0.01908        0.06
-0.01904        0.06
-0.019  0.06
-0.01896        0.04
-0.01892        0
-0.01888        0
-0.01884        -0.04
-0.0188         -0.02
-0.01876        -0.04
-0.01872        0
-0.01868        0.02
-0.01864        0.06
-0.0186         0.06
-0.01856        0.06
-0.01852        0.08
-0.01848        0.08
-0.01844        0.06
-0.0184         0.06
-0.01836        0.02
-0.01832        0.02
-0.01828        -0.02
-0.01824        -0.04
-0.0182         -0.02
-0.01816        -0.02
-0.01812        -0.02
-0.01808        0.02
-0.01804        0.02
-0.018  0.04
-0.01796        0.06
-0.01792        0.08
-0.01788        0.1
-0.01784        0.08
-0.0178         0.06
-0.01776        0.06
-0.01772        0
-0.01768        0
-0.01764        -0.04
-0.0176         -0.02
-0.01756        -0.02
-0.01752        0
-0.01748        0
-0.01744        0.02
-0.0174         0.06
-0.01736        0.06
-0.01732        0.06
-0.01728        0.08
-0.01724        0.06
-0.0172         0.06
-0.01716        0.06
-0.01712        0.02
-0.01708        0
-0.01704        -0.02
-0.017  -0.04
-0.01696        -0.02
-0.01692        -0.04
-0.01688        -0.02
-0.01684        0.04
-0.0168         0.04
-0.01676        0.04
-0.01672        0.08
-0.01668        0.08
-0.01664        0.08
-0.0166         0.06
-0.01656        0.06
-0.01652        0.02
-0.01648        0
-0.01644        -0.02
-0.0164         -0.04
-0.01636        -0.04
-0.01632        0
-0.01628        0
-0.01624        0
-0.0162         0.04
-0.01616        0.06
-0.01612        0.06
-0.01608        0.08
-0.01604        0.08
-0.016  0.08
-0.01596        0.06
-0.01592        0.04
-0.01588        0.02
-0.01584        0
-0.0158         -0.02
-0.01576        -0.04
-0.01572        -0.02
-0.01568        -0.02
-0.01564        -0.02
-0.0156         0.02
-0.01556        0.04
-0.01552        0.06
-0.01548        0.08
-0.01544        0.1
-0.0154         0.08
-0.01536        0.06
-0.01532        0.06
-0.01528        0.04
-0.01524        0
-0.0152         -0.02
-0.01516        -0.04
-0.01512        -0.04
-0.01508        -0.02
-0.01504        -0.02
-0.015  0
-0.01496        0.04
-0.01492        0.08
-0.01488        0.08
-0.01484        0.08
-0.0148         0.08
-0.01476        0.1
-0.01472        0.06
-0.01468        0.04
-0.01464        0.04
-0.0146         0
-0.01456        -0.02
-0.01452        -0.04
-0.01448        -0.02
-0.01444        -0.02
-0.0144         0.02
-0.01436        0.04
-0.01432        0.06
-0.01428        0.06
-0.01424        0.08
-0.0142         0.08
-0.01416        0.1
-0.01412        0.08
-0.01408        0.06
-0.01404        0.02
-0.014  0
-0.01396        -0.02
-0.01392        -0.04
-0.01388        -0.04
-0.01384        -0.04
-0.0138         -0.04
-0.01376        0.02
-0.01372        0.04
-0.01368        0.08
-0.01364        0.08
-0.0136         0.1
-0.01356        0.1
-0.01352        0.08
-0.01348        0.06
-0.01344        0.04
-0.0134         0
-0.01336        -0.02
-0.01332        -0.02
-0.01328        -0.04
-0.01324        -0.04
-0.0132         -0.02
-0.01316        0
-0.01312        0.02
-0.01308        0.04
-0.01304        0.08
-0.013  0.08
-0.01296        0.08
-0.01292        0.08
-0.01288        0.08
-0.01284        0.06
-0.0128         0.02
-0.01276        0
-0.01272        -0.04
-0.01268        -0.04
-0.01264        -0.04
-0.0126         -0.04
-0.01256        0
-0.01252        0.02
-0.01248        0.06
-0.01244        0.06
-0.0124         0.12
-0.01236        0.1
-0.01232        0.1
-0.01228        0.08
-0.01224        0.06
-0.0122         0.04
-0.01216        0
-0.01212        -0.04
-0.01208        -0.04
-0.01204        -0.04
-0.012  -0.06
-0.01196        -0.04
-0.01192        0.02
-0.01188        0.04
-0.01184        0.06
-0.0118         0.08
-0.01176        0.1
-0.01172        0.1
-0.01168        0.08
-0.01164        0.08
-0.0116         0.06
-0.01156        0.02
-0.01152        -0.02
-0.01148        -0.04
-0.01144        -0.06
-0.0114         -0.04
-0.01136        -0.04
-0.01132        0
-0.01128        0.02
-0.01124        0.06
-0.0112         0.08
-0.01116        0.08
-0.01112        0.1
-0.01108        0.12
-0.01104        0.08
-0.011  0.06
-0.01096        0.02
-0.01092        0.02
-0.01088        -0.02
-0.01084        -0.06
-0.0108         -0.04
-0.01076        -0.04
-0.01072        -0.02
-0.01068        0.02
-0.01064        0.04
-0.0106         0.06
-0.01056        0.1
-0.01052        0.12
-0.01048        0.1
-0.01044        0.08
-0.0104         0.08
-0.01036        0.06
-0.01032        0
-0.01028        0
-0.01024        -0.06
-0.0102         -0.06
-0.01016        -0.06
-0.01012        -0.04
-0.01008        -0.02
-0.01004        0.04
-0.01   0.06
-0.00996        0.1
-0.00992        0.1
-0.00988        0.1
-0.00984        0.1
-0.0098         0.08
-0.00976        0.04
-0.00972        0.02
-0.00968        -0.02
-0.00964        -0.06
-0.0096         -0.06
-0.00956        -0.04
-0.00952        -0.04
-0.00948        0
-0.00944        0.02
-0.0094         0.06
-0.00936        0.06
-0.00932        0.1
-0.00928        0.12
-0.00924        0.1
-0.0092         0.08
-0.00916        0.06
-0.00912        0.02
-0.00908        0.02
-0.00904        -0.04
-0.009  -0.06
-0.00896        -0.06
-0.00892        -0.04
-0.00888        0
-0.00884        0
-0.0088         0.04
-0.00876        0.06
-0.00872        0.12
-0.00868        0.1
-0.00864        0.1
-0.0086         0.1
-0.00856        0.08
-0.00852        0.04
-0.00848        0.02
-0.00844        -0.02
-0.0084         -0.04
-0.00836        -0.04
-0.00832        -0.04
-0.00828        -0.04
-0.00824        0
-0.0082         0.02
-0.00816        0.08
-0.00812        0.08
-0.00808        0.1
-0.00804        0.1
-0.008  0.1
-0.00796        0.1
-0.00792        0.06
-0.00788        0.04
-0.00784        -0.02
-0.0078         -0.04
-0.00776        -0.04
-0.00772        -0.06
-0.00768        -0.04
-0.00764        0
-0.0076         0
-0.00756        0.06
-0.00752        0.08
-0.00748        0.1
-0.00744        0.12
-0.0074         0.12
-0.00736        0.08
-0.00732        0.1
-0.00728        0.02
-0.00724        0
-0.0072         -0.04
-0.00716        -0.06
-0.00712        -0.06
-0.00708        -0.04
-0.00704        -0.04
-0.007  0
-0.00696        0.02
-0.00692        0.06
-0.00688        0.1
-0.00684        0.12
-0.0068         0.14
-0.00676        0.12
-0.00672        0.1
-0.00668        0.06
-0.00664        0
-0.0066         -0.04
-0.00656        -0.06
-0.00652        -0.06
-0.00648        -0.08
-0.00644        -0.04
-0.0064         -0.02
-0.00636        0.02
-0.00632        0.06
-0.00628        0.08
-0.00624        0.12
-0.0062         0.12
-0.00616        0.12
-0.00612        0.08
-0.00608        0.06
-0.00604        0.04
-0.006  0
-0.00596        -0.06
-0.00592        -0.06
-0.00588        -0.06
-0.00584        -0.04
-0.0058         -0.04
-0.00576        0
-0.00572        0.04
-0.00568        0.08
-0.00564        0.1
-0.0056         0.12
-0.00556        0.14
-0.00552        0.1
-0.00548        0.08
-0.00544        0.06
-0.0054         0
-0.00536        -0.02
-0.00532        -0.04
-0.00528        -0.08
-0.00524        -0.08
-0.0052         -0.04
-0.00516        -0.02
-0.00512        0.02
-0.00508        0.06
-0.00504        0.1
-0.005  0.12
-0.00496        0.12
-0.00492        0.12
-0.00488        0.1
-0.00484        0.08
-0.0048         0.02
-0.00476        -0.02
-0.00472        -0.04
-0.00468        -0.06
-0.00464        -0.06
-0.0046         -0.04
-0.00456        -0.02
-0.00452        0
-0.00448        0.04
-0.00444        0.1
-0.0044         0.14
-0.00436        0.14
-0.00432        0.12
-0.00428        0.1
-0.00424        0.08
-0.0042         0.04
-0.00416        0
-0.00412        -0.04
-0.00408        -0.06
-0.00404        -0.08
-0.004  -0.08
-0.00396        -0.02
-0.00392        -0.02
-0.00388        0.02
-0.00384        0.08
-0.0038         0.1
-0.00376        0.14
-0.00372        0.16
-0.00368        0.12
-0.00364        0.1
-0.0036         0.06
-0.00356        0.02
-0.00352        -0.02
-0.00348        -0.04
-0.00344        -0.08
-0.0034         -0.08
-0.00336        -0.06
-0.00332        -0.04
-0.00328        0.02
-0.00324        0.06
-0.0032         0.1
-0.00316        0.12
-0.00312        0.14
-0.00308        0.12
-0.00304        0.12
-0.003  0.06
-0.00296        0.04
-0.00292        0
-0.00288        -0.04
-0.00284        -0.08
-0.0028         -0.08
-0.00276        -0.08
-0.00272        -0.04
-0.00268        0
-0.00264        0.04
-0.0026         0.08
-0.00256        0.12
-0.00252        0.16
-0.00248        0.14
-0.00244        0.12
-0.0024         0.08
-0.00236        0.06
-0.00232        0.02
-0.00228        -0.04
-0.00224        -0.06
-0.0022         -0.08
-0.00216        -0.1
-0.00212        -0.06
-0.00208        -0.04
-0.00204        0
-0.002  0.06
-0.00196        0.12
-0.00192        0.12
-0.00188        0.14
-0.00184        0.16
-0.0018         0.12
-0.00176        0.08
-0.00172        0.04
-0.00168        -0.02
-0.00164        -0.06
-0.0016         -0.08
-0.00156        -0.1
-0.00152        -0.08
-0.00148        -0.04
-0.00144        -0.02
-0.0014         0.04
-0.00136        0.1
-0.00132        0.12
-0.00128        0.16
-0.00124        0.12
-0.0012         0.12
-0.00116        0.08
-0.00112        0.04
-0.00108        -0.02
-0.00104        -0.04
-0.000999999    -0.08
-0.000959999    -0.1
-0.000919999    -0.08
-0.000879999    -0.04
-0.000839999    -0.02
-0.000799999    0.04
-0.000759999    0.08
-0.000719999    0.12
-0.000679999    0.14
-0.000639999    0.14
-0.000599999    0.12
-0.000559999    0.12
-0.000519999    0.06
-0.000479999    0.02
-0.000439999    -0.04
-0.000399999    -0.06
-0.000359999    -0.1
-0.000319999    -0.08
-0.000279999    -0.06
-0.000239999    -0.04
-0.000199999    0
-0.000159999    0.06
-0.000119999    0.12
-7.99991e-005   0.14
-3.99991e-005   0.16
9.31323e-010    0.16
4.00009e-005    0.1
8.00009e-005    0.08
0.000120001     0.04
0.000160001     -0.02
0.000200001     -0.08
0.000240001     -0.12
0.000280001     -0.1
0.000320001     -0.1
0.000360001     -0.06
0.000400001     0
0.000440001     0.04
0.000480001     0.08
0.000520001     0.14
0.000560001     0.16
0.000600001     0.14
0.000640001     0.14
0.000680001     0.08
0.000720001     0.06
0.000760001     0.02
0.000800001     -0.04
0.000840001     -0.08
0.000880001     -0.1
0.000920001     -0.08
0.000960001     -0.08
0.001   -0.04
0.00104         0.02
0.00108         0.06
0.00112         0.1
0.00116         0.16
0.0012  0.16
0.00124         0.16
0.00128         0.12
0.00132         0.06
0.00136         0.04
0.0014  -0.04
0.00144         -0.08
0.00148         -0.12
0.00152         -0.1
0.00156         -0.1
0.0016  -0.06
0.00164         0
0.00168         0.04
0.00172         0.1
0.00176         0.14
0.0018  0.16
0.00184         0.16
0.00188         0.16
0.00192         0.08
0.00196         0.06
0.002   0
0.00204         -0.06
0.00208         -0.08
0.00212         -0.12
0.00216         -0.12
0.0022  -0.08
0.00224         -0.04
0.00228         0.02
0.00232         0.06
0.00236         0.14
0.0024  0.16
0.00244         0.18
0.00248         0.16
0.00252         0.14
0.00256         0.08
0.0026  0
0.00264         -0.04
0.00268         -0.08
0.00272         -0.12
0.00276         -0.12
0.0028  -0.1
0.00284         -0.04
0.00288         0
0.00292         0.06
0.00296         0.12
0.003   0.16
0.00304         0.18
0.00308         0.18
0.00312         0.14
0.00316         0.08
0.0032  0.04
0.00324         -0.04
0.00328         -0.08
0.00332         -0.12
0.00336         -0.14
0.0034  -0.1
0.00344         -0.06
0.00348         -0.02
0.00352         0.04
0.00356         0.1
0.0036  0.16
0.00364         0.16
0.00368         0.18
0.00372         0.14
0.00376         0.14
0.0038  0.06
0.00384         0
0.00388         -0.04
0.00392         -0.12
0.00396         -0.14
0.004   -0.12
0.00404         -0.08
0.00408         -0.04
0.00412         0
0.00416         0.06
0.0042  0.14
0.00424         0.16
0.00428         0.2
0.00432         0.18
0.00436         0.16
0.0044  0.08
0.00444         0.04
0.00448         -0.04
0.00452         -0.1
0.00456         -0.12
0.0046  -0.14
0.00464         -0.1
0.00468         -0.08
0.00472         0
0.00476         0.04
0.0048  0.12
0.00484         0.16
0.00488         0.18
0.00492         0.18
0.00496         0.16
0.005   0.12
0.00504         0.04
0.00508         -0.02
0.00512         -0.06
0.00516         -0.12
0.0052  -0.14
0.00524         -0.14
0.00528         -0.08
0.00532         -0.04
0.00536         0.04
0.0054  0.08
0.00544         0.14
0.00548         0.18
0.00552         0.22
0.00556         0.18
0.0056  0.12
0.00564         0.08
0.00568         0
0.00572         -0.08
0.00576         -0.12
0.0058  -0.14
0.00584         -0.14
0.00588         -0.12
0.00592         -0.08
0.00596         0.02
0.006   0.06
0.00604         0.14
0.00608         0.16
0.00612         0.2
0.00616         0.2
0.0062  0.16
0.00624         0.1
0.00628         0.04
0.00632         -0.04
0.00636         -0.1
0.0064  -0.12
0.00644         -0.14
0.00648         -0.14
0.00652         -0.1
0.00656         -0.02
0.0066  0.06
0.00664         0.12
0.00668         0.18
0.00672         0.2
0.00676         0.2
0.0068  0.18
0.00684         0.14
0.00688         0.08
0.00692         -0.02
0.00696         -0.06
0.007   -0.14
0.00704         -0.16
0.00708         -0.16
0.00712         -0.14
0.00716         -0.04
0.0072  0
0.00724         0.08
0.00728         0.16
0.00732         0.2
0.00736         0.22
0.0074  0.22
0.00744         0.16
0.00748         0.1
0.00752         0.02
0.00756         -0.04
0.0076  -0.1
0.00764         -0.12
0.00768         -0.16
0.00772         -0.14
0.00776         -0.06
0.0078  -0.02
0.00784         0.08
0.00788         0.14
0.00792         0.18
0.00796         0.22
0.008   0.2
0.00804         0.18
0.00808         0.12
0.00812         0.04
0.00816         -0.04
0.0082  -0.1
0.00824         -0.16
0.00828         -0.16
0.00832         -0.14
0.00836         -0.1
0.0084  -0.04
0.00844         0.04
0.00848         0.12
0.00852         0.16
0.00856         0.2
0.0086  0.22
0.00864         0.22
0.00868         0.16
0.00872         0.08
0.00876         0
0.0088  -0.08
0.00884         -0.12
0.00888         -0.16
0.00892         -0.16
0.00896         -0.14
0.009   -0.08
0.00904         -0.04
0.00908         0.08
0.00912         0.14
0.00916         0.2
0.0092  0.22
0.00924         0.22
0.00928         0.16
0.00932         0.12
0.00936         0.04
0.0094  -0.04
0.00944         -0.12
0.00948         -0.18
0.00952         -0.18
0.00956         -0.16
0.0096  -0.12
0.00964         -0.04
0.00968         0.04
0.00972         0.12
0.00976         0.18
0.0098  0.24
0.00984         0.24
0.00988         0.2
0.00992         0.16
0.00996         0.06
0.01    0
0.01004         -0.1
0.01008         -0.18
0.01012         -0.2
0.01016         -0.16
0.0102  -0.14
0.01024         -0.06
0.01028         0.02
0.01032         0.1
0.01036         0.16
0.0104  0.24
0.01044         0.24
0.01048         0.24
0.01052         0.16
0.01056         0.1
0.0106  0.02
0.01064         -0.06
0.01068         -0.14
0.01072         -0.18
0.01076         -0.18
0.0108  -0.18
0.01084         -0.12
0.01088         -0.04
0.01092         0.06
0.01096         0.12
0.011   0.2
0.01104         0.26
0.01108         0.26
0.01112         0.22
0.01116         0.14
0.0112  0.06
0.01124         -0.02
0.01128         -0.12
0.01132         -0.2
0.01136         -0.2
0.0114  -0.18
0.01144         -0.16
0.01148         -0.06
0.01152         0.02
0.01156         0.1
0.0116  0.18
0.01164         0.24
0.01168         0.26
0.01172         0.24
0.01176         0.16
0.0118  0.1
0.01184         0.02
0.01188         -0.08
0.01192         -0.18
0.01196         -0.2
0.012   -0.2
0.01204         -0.18
0.01208         -0.1
0.01212         -0.02
0.01216         0.06
0.0122  0.16
0.01224         0.22
0.01228         0.26
0.01232         0.26
0.01236         0.2
0.0124  0.14
0.01244         0.04
0.01248         -0.04
0.01252         -0.14
0.01256         -0.2
0.0126  -0.22
0.01264         -0.22
0.01268         -0.16
0.01272         -0.04
0.01276         0.04
0.0128  0.14
0.01284         0.22
0.01288         0.26
0.01292         0.28
0.01296         0.22
0.013   0.16
0.01304         0.08
0.01308         -0.02
0.01312         -0.12
0.01316         -0.2
0.0132  -0.22
0.01324         -0.22
0.01328         -0.18
0.01332         -0.08
0.01336         0
0.0134  0.12
0.01344         0.22
0.01348         0.26
0.01352         0.28
0.01356         0.26
0.0136  0.2
0.01364         0.12
0.01368         0.04
0.01372         -0.08
0.01376         -0.18
0.0138  -0.22
0.01384         -0.24
0.01388         -0.2
0.01392         -0.14
0.01396         -0.04
0.014   0.08
0.01404         0.16
0.01408         0.24
0.01412         0.28
0.01416         0.28
0.0142  0.24
0.01424         0.18
0.01428         0.06
0.01432         -0.04
0.01436         -0.14
0.0144  -0.22
0.01444         -0.24
0.01448         -0.22
0.01452         -0.16
0.01456         -0.08
0.0146  0.04
0.01464         0.14
0.01468         0.22
0.01472         0.28
0.01476         0.3
0.0148  0.26
0.01484         0.2
0.01488         0.1
0.01492         0.02
0.01496         -0.1
0.015   -0.2
0.01504         -0.24
0.01508         -0.24
0.01512         -0.22
0.01516         -0.12
0.0152  -0.02
0.01524         0.08
0.01528         0.18
0.01532         0.28
0.01536         0.3
0.0154  0.28
0.01544         0.24
0.01548         0.16
0.01552         0.06
0.01556         -0.06
0.0156  -0.18
0.01564         -0.26
0.01568         -0.26
0.01572         -0.24
0.01576         -0.16
0.0158  -0.06
0.01584         0.06
0.01588         0.16
0.01592         0.26
0.01596         0.32
0.016   0.3
0.01604         0.28
0.01608         0.2
0.01612         0.1
0.01616         -0.02
0.0162  -0.12
0.01624         -0.24
0.01628         -0.26
0.01632         -0.26
0.01636         -0.2
0.0164  -0.12
0.01644         0
0.01648         0.12
0.01652         0.22
0.01656         0.3
0.0166  0.32
0.01664         0.3
0.01668         0.24
0.01672         0.14
0.01676         0.02
0.0168  -0.12
0.01684         -0.2
0.01688         -0.28
0.01692         -0.28
0.01696         -0.24
0.017   -0.14
0.01704         -0.04
0.01708         0.08
0.01712         0.18
0.01716         0.28
0.0172  0.34
0.01724         0.32
0.01728         0.28
0.01732         0.18
0.01736         0.06
0.0174  -0.06
0.01744         -0.16
0.01748         -0.26
0.01752         -0.3
0.01756         -0.26
0.0176  -0.2
0.01764         -0.1
0.01768         0.04
0.01772         0.16
0.01776         0.26
0.0178  0.32
0.01784         0.36
0.01788         0.3
0.01792         0.24
0.01796         0.1
0.018   -0.04
0.01804         -0.14
0.01808         -0.24
0.01812         -0.3
0.01816         -0.28
0.0182  -0.24
0.01824         -0.16
0.01828         -0.04
0.01832         0.12
0.01836         0.22
0.0184  0.3
0.01844         0.36
0.01848         0.34
0.01852         0.28
0.01856         0.16
0.0186  0.06
0.01864         -0.06
0.01868         -0.2
0.01872         -0.3
0.01876         -0.3
0.0188  -0.28
0.01884         -0.2
0.01888         -0.06
0.01892         0.04
0.01896         0.18
0.019   0.3
0.01904         0.36
0.01908         0.36
0.01912         0.32
0.01916         0.22
0.0192  0.1
0.01924         -0.06
0.01928         -0.18
0.01932         -0.26
0.01936         -0.3
0.0194  -0.3
0.01944         -0.26
0.01948         -0.14
0.01952         0
0.01956         0.12
0.0196  0.26
0.01964         0.34
0.01968         0.36
0.01972         0.36
0.01976         0.28
0.0198  0.16
0.01984         0.02
0.01988         -0.12
0.01992         -0.24
0.01996         -0.3
0.02    -0.32
0.02004         -0.28
0.02008         -0.2
0.02012         -0.06
0.02016         0.06
0.0202  0.22
0.02024         0.3
0.02028         0.36
0.02032         0.4
0.02036         0.32
0.0204  0.22
0.02044         0.08
0.02048         -0.06
0.02052         -0.2
0.02056         -0.3
0.0206  -0.34
0.02064         -0.3
0.02068         -0.24
0.02072         -0.12
0.02076         0.04
0.0208  0.16
0.02084         0.3
0.02088         0.38
0.02092         0.4
0.02096         0.34
0.021   0.26
0.02104         0.12
0.02108         0
0.02112         -0.16
0.02116         -0.26
0.0212  -0.36
0.02124         -0.34
0.02128         -0.28
0.02132         -0.18
0.02136         -0.04
0.0214  0.1
0.02144         0.24
0.02148         0.36
0.02152         0.4
0.02156         0.4
0.0216  0.32
0.02164         0.2
0.02168         0.06
0.02172         -0.1
0.02176         -0.26
0.0218  -0.34
0.02184         -0.36
0.02188         -0.32
0.02192         -0.24
0.02196         -0.1
0.022   0.06
0.02204         0.2
0.02208         0.32
0.02212         0.4
0.02216         0.4
0.0222  0.34
0.02224         0.26
0.02228         0.12
0.02232         -0.04
0.02236         -0.2
0.0224  -0.3
0.02244         -0.36
0.02248         -0.38
0.02252         -0.3
0.02256         -0.18
0.0226  0
0.02264         0.14
0.02268         0.28
0.02272         0.4
0.02276         0.42
0.0228  0.4
0.02284         0.32
0.02288         0.2
0.02292         0.02
0.02296         -0.14
0.023   -0.28
0.02304         -0.36
0.02308         -0.4
0.02312         -0.36
0.02316         -0.24
0.0232  -0.08
0.02324         0.1
0.02328         0.24
0.02332         0.36
0.02336         0.42
0.0234  0.44
0.02344         0.36
0.02348         0.24
0.02352         0.06
0.02356         -0.08
0.0236  -0.24
0.02364         -0.36
0.02368         -0.4
0.02372         -0.36
0.02376         -0.3
0.0238  -0.16
0.02384         0.02
0.02388         0.2
0.02392         0.32
0.02396         0.42
0.024   0.46
0.02404         0.42
0.02408         0.3
0.02412         0.14
0.02416         -0.02
0.0242  -0.18
0.02424         -0.32
0.02428         -0.38
0.02432         -0.4
0.02436         -0.34
0.0244  -0.2
0.02444         -0.06
0.02448         0.12
0.02452         0.3
0.02456         0.4
0.0246  0.46
0.02464         0.44
0.02468         0.34
0.02472         0.22
0.02476         0.06
0.0248  -0.12
0.02484         -0.28
0.02488         -0.38
0.02492         -0.42
0.02496         -0.38
0.025   -0.28
0.02504         -0.12
0.02508         0.06
0.02512         0.24
0.02516         0.38
0.0252  0.46
0.02524         0.46
0.02528         0.42
0.02532         0.3
0.02536         0.14
0.0254  -0.06
0.02544         -0.24
0.02548         -0.38
0.02552         -0.44
0.02556         -0.42
0.0256  -0.34
0.02564         -0.2
0.02568         -0.04
0.02572         0.16
0.02576         0.32
0.0258  0.44
0.02584         0.48
0.02588         0.46
0.02592         0.34
0.02596         0.2
0.026   0.04
0.02604         -0.16
0.02608         -0.32
0.02612         -0.42
0.02616         -0.42
0.0262  -0.38
0.02624         -0.26
0.02628         -0.1
0.02632         0.1
0.02636         0.26
0.0264  0.42
0.02644         0.52
0.02648         0.5
0.02652         0.42
0.02656         0.28
0.0266  0.1
0.02664         -0.1
0.02668         -0.28
0.02672         -0.4
0.02676         -0.46
0.0268  -0.44
0.02684         -0.34
0.02688         -0.18
0.02692         0.02
0.02696         0.22
0.027   0.38
0.02704         0.48
0.02708         0.52
0.02712         0.48
0.02716         0.34
0.0272  0.2
0.02724         -0.04
0.02728         -0.22
0.02732         -0.38
0.02736         -0.44
0.0274  -0.46
0.02744         -0.4
0.02748         -0.26
0.02752         -0.06
0.02756         0.16
0.0276  0.34
0.02764         0.46
0.02768         0.52
0.02772         0.52
0.02776         0.42
0.0278  0.26
0.02784         0.06
0.02788         -0.16
0.02792         -0.32
0.02796         -0.46
0.028   -0.48
0.02804         -0.46
0.02808         -0.32
0.02812         -0.12
0.02816         0.06
0.0282  0.24
0.02824         0.42
0.02828         0.54
0.02832         0.56
0.02836         0.46
0.0284  0.34
0.02844         0.14
0.02848         -0.06
0.02852         -0.28
0.02856         -0.42
0.0286  -0.5
0.02864         -0.52
0.02868         -0.4
0.02872         -0.26
0.02876         -0.02
0.0288  0.2
0.02884         0.38
0.02888         0.5
0.02892         0.56
0.02896         0.54
0.029   0.42
0.02904         0.24
0.02908         0.02
0.02912         -0.2
0.02916         -0.38
0.0292  -0.48
0.02924         -0.52
0.02928         -0.46
0.02932         -0.34
0.02936         -0.12
0.0294  0.1
0.02944         0.32
0.02948         0.48
0.02952         0.58
0.02956         0.56
0.0296  0.46
0.02964         0.3
0.02968         0.1
0.02972         -0.12
0.02976         -0.34
0.0298  -0.48
0.02984         -0.54
0.02988         -0.52
0.02992         -0.4
0.02996         -0.2
0.03    0.02
0.03004         0.24
0.03008         0.44
0.03012         0.56
0.03016         0.6
0.0302  0.52
0.03024         0.4
0.03028         0.2
0.03032         -0.02
0.03036         -0.26
0.0304  -0.46
0.03044         -0.54
0.03048         -0.56
0.03052         -0.46
0.03056         -0.3
0.0306  -0.08
0.03064         0.16
0.03068         0.38
0.03072         0.54
0.03076         0.6
0.0308  0.58
0.03084         0.48
0.03088         0.28
0.03092         0.06
0.03096         -0.18
0.031   -0.4
0.03104         -0.52
0.03108         -0.56
0.03112         -0.54
0.03116         -0.38
0.0312  -0.16
0.03124         0.06
0.03128         0.28
0.03132         0.5
0.03136         0.6
0.0314  0.62
0.03144         0.56
0.03148         0.38
0.03152         0.16
0.03156         -0.08
0.0316  -0.3
0.03164         -0.48
0.03168         -0.58
0.03172         -0.56
0.03176         -0.46
0.0318  -0.26
0.03184         -0.04
0.03188         0.24
0.03192         0.44
0.03196         0.58
0.032   0.64
0.03204         0.6
0.03208         0.46
0.03212         0.26
0.03216         0.02
0.0322  -0.24
0.03224         -0.44
0.03228         -0.58
0.03232         -0.58
0.03236         -0.52
0.0324  -0.36
0.03244         -0.12
0.03248         0.12
0.03252         0.36
0.03256         0.54
0.0326  0.66
0.03264         0.64
0.03268         0.56
0.03272         0.36
0.03276         0.1
0.0328  -0.14
0.03284         -0.38
0.03288         -0.54
0.03292         -0.62
0.03296         -0.58
0.033   -0.46
0.03304         -0.26
0.03308         0
0.03312         0.26
0.03316         0.48
0.0332  0.64
0.03324         0.68
0.03328         0.62
0.03332         0.44
0.03336         0.22
0.0334  -0.04
0.03344         -0.3
0.03348         -0.5
0.03352         -0.62
0.03356         -0.62
0.0336  -0.54
0.03364         -0.36
0.03368         -0.1
0.03372         0.16
0.03376         0.44
0.0338  0.6
0.03384         0.68
0.03388         0.66
0.03392         0.54
0.03396         0.32
0.034   0.08
0.03404         -0.2
0.03408         -0.46
0.03412         -0.6
0.03416         -0.66
0.0342  -0.6
0.03424         -0.44
0.03428         -0.2
0.03432         0.06
0.03436         0.32
0.0344  0.56
0.03444         0.68
0.03448         0.68
0.03452         0.62
0.03456         0.44
0.0346  0.18
0.03464         -0.08
0.03468         -0.38
0.03472         -0.56
0.03476         -0.66
0.0348  -0.66
0.03484         -0.54
0.03488         -0.34
0.03492         -0.06
0.03496         0.24
0.035   0.48
0.03504         0.66
0.03508         0.72
0.03512         0.68
0.03516         0.54
0.0352  0.3
0.03524         0.02
0.03528         -0.28
0.03532         -0.5
0.03536         -0.66
0.0354  -0.7
0.03544         -0.62
0.03548         -0.42
0.03552         -0.16
0.03556         0.12
0.0356  0.4
0.03564         0.62
0.03568         0.74
0.03572         0.72
0.03576         0.62
0.0358  0.42
0.03584         0.14
0.03588         -0.16
0.03592         -0.44
0.03596         -0.64
0.036   -0.7
0.03604         -0.66
0.03608         -0.52
0.03612         -0.3
0.03616         0.02
0.0362  0.32
0.03624         0.54
0.03628         0.72
0.03632         0.8
0.03636         0.7
0.0364  0.52
0.03644         0.26
0.03648         -0.04
0.03652         -0.34
0.03656         -0.58
0.0366  -0.7
0.03664         -0.74
0.03668         -0.62
0.03672         -0.4
0.03676         -0.1
0.0368  0.2
0.03684         0.46
0.03688         0.66
0.03692         0.78
0.03696         0.74
0.037   0.62
0.03704         0.38
0.03708         0.06
0.03712         -0.24
0.03716         -0.5
0.0372  -0.68
0.03724         -0.74
0.03728         -0.68
0.03732         -0.5
0.03736         -0.24
0.0374  0.08
0.03744         0.38
0.03748         0.64
0.03752         0.76
0.03756         0.8
0.0376  0.7
0.03764         0.46
0.03768         0.18
0.03772         -0.12
0.03776         -0.44
0.0378  -0.64
0.03784         -0.76
0.03788         -0.74
0.03792         -0.62
0.03796         -0.38
0.038   -0.06
0.03804         0.26
0.03808         0.54
0.03812         0.74
0.03816         0.82
0.0382  0.78
0.03824         0.6
0.03828         0.32
0.03832         0.02
0.03836         -0.32
0.0384  -0.56
0.03844         -0.76
0.03848         -0.78
0.03852         -0.68
0.03856         -0.48
0.0386  -0.18
0.03864         0.14
0.03868         0.44
0.03872         0.7
0.03876         0.82
0.0388  0.82
0.03884         0.68
0.03888         0.46
0.03892         0.16
0.03896         -0.18
0.039   -0.48
0.03904         -0.7
0.03908         -0.8
0.03912         -0.76
0.03916         -0.58
0.0392  -0.34
0.03924         0
0.03928         0.34
0.03932         0.62
0.03936         0.78
0.0394  0.86
0.03944         0.78
0.03948         0.56
0.03952         0.28
0.03956         -0.06
0.0396  -0.38
0.03964         -0.64
0.03968         -0.78
0.03972         -0.82
0.03976         -0.68
0.0398  -0.46
0.03984         -0.14
0.03988         0.22
0.03992         0.54
0.03996         0.76
0.04    0.86
0.04004         0.82
0.04008         0.68
0.04012         0.42
0.04016         0.08
0.0402  -0.26
0.04024         -0.56
0.04028         -0.76
0.04032         -0.84
0.04036         -0.76
0.0404  -0.58
0.04044         -0.28
0.04048         0.08
0.04052         0.42
0.04056         0.7
0.0406  0.84
0.04064         0.88
0.04068         0.78
0.04072         0.54
0.04076         0.24
0.0408  -0.12
0.04084         -0.46
0.04088         -0.7
0.04092         -0.84
0.04096         -0.84
0.041   -0.66
0.04104         -0.4
0.04108         -0.06
0.04112         0.26
0.04116         0.58
0.0412  0.82
0.04124         0.9
0.04128         0.84
0.04132         0.64
0.04136         0.36
0.0414  0.02
0.04144         -0.34
0.04148         -0.64
0.04152         -0.82
0.04156         -0.86
0.0416  -0.76
0.04164         -0.52
0.04168         -0.22
0.04172         0.14
0.04176         0.5
0.0418  0.76
0.04184         0.9
0.04188         0.9
0.04192         0.76
0.04196         0.5
0.042   0.16
0.04204         -0.22
0.04208         -0.54
0.04212         -0.76
0.04216         -0.86
0.0422  -0.84
0.04224         -0.64
0.04228         -0.36
0.04232         0.02
0.04236         0.36
0.0424  0.66
0.04244         0.88
0.04248         0.94
0.04252         0.84
0.04256         0.62
0.0426  0.3
0.04264         -0.04
0.04268         -0.42
0.04272         -0.7
0.04276         -0.86
0.0428  -0.88
0.04284         -0.76
0.04288         -0.5
0.04292         -0.16
0.04296         0.24
0.043   0.56
0.04304         0.82
0.04308         0.96
0.04312         0.92
0.04316         0.74
0.0432  0.46
0.04324         0.08
0.04328         -0.3
0.04332         -0.62
0.04336         -0.84
0.0434  -0.9
0.04344         -0.84
0.04348         -0.6
0.04352         -0.3
0.04356         0.06
0.0436  0.46
0.04364         0.74
0.04368         0.92
0.04372         0.96
0.04376         0.82
0.0438  0.6
0.04384         0.24
0.04388         -0.14
0.04392         -0.48
0.04396         -0.76
0.044   -0.9
0.04404         -0.9
0.04408         -0.74
0.04412         -0.46
0.04416         -0.08
0.0442  0.28
0.04424         0.64
0.04428         0.86
0.04432         0.96
0.04436         0.92
0.0444  0.72
0.04444         0.38
0.04448         0.02
0.04452         -0.36
0.04456         -0.66
0.0446  -0.86
0.04464         -0.94
0.04468         -0.82
0.04472         -0.56
0.04476         -0.24
0.0448  0.14
0.04484         0.52
0.04488         0.82
0.04492         0.96
0.04496         0.98
0.045   0.82
0.04504         0.54
0.04508         0.18
0.04512         -0.22
0.04516         -0.58
0.0452  -0.82
0.04524         -0.92
0.04528         -0.9
0.04532         -0.7
0.04536         -0.4
0.0454  0
0.04544         0.38
0.04548         0.74
0.04552         0.92
0.04556         1
0.0456  0.88
0.04564         0.68
0.04568         0.32
0.04572         -0.08
0.04576         -0.46
0.0458  -0.76
0.04584         -0.94
0.04588         -0.96
0.04592         -0.78
0.04596         -0.54
0.046   -0.16
0.04604         0.24
0.04608         0.58
0.04612         0.86
0.04616         1
0.0462  0.96
0.04624         0.76
0.04628         0.48
0.04632         0.1
0.04636         -0.32
0.0464  -0.66
0.04644         -0.88
0.04648         -0.98
0.04652         -0.86
0.04656         -0.66
0.0466  -0.32
0.04664         0.06
0.04668         0.46
0.04672         0.78
0.04676         0.98
0.0468  1.02
0.04684         0.88
0.04688         0.62
0.04692         0.26
0.04696         -0.16
0.047   -0.52
0.04704         -0.8
0.04708         -0.96
0.04712         -0.96
0.04716         -0.78
0.0472  -0.48
0.04724         -0.08
0.04728         0.34
0.04732         0.68
0.04736         0.92
0.0474  1.04
0.04744         0.96
0.04748         0.74
0.04752         0.42
0.04756         0
0.0476  -0.38
0.04764         -0.72
0.04768         -0.92
0.04772         -0.98
0.04776         -0.86
0.0478  -0.62
0.04784         -0.24
0.04788         0.16
0.04792         0.56
0.04796         0.84
0.048   1
0.04804         1.02
0.04808         0.84
0.04812         0.56
0.04816         0.2
0.0482  -0.24
0.04824         -0.6
0.04828         -0.88
0.04832         -1
0.04836         -0.94
0.0484  -0.74
0.04844         -0.42
0.04848         0
0.04852         0.4
0.04856         0.76
0.0486  0.96
0.04864         1.04
0.04868         0.94
0.04872         0.68
0.04876         0.36
0.0488  -0.06
0.04884         -0.46
0.04888         -0.76
0.04892         -0.96
0.04896         -0.98
0.049   -0.84
0.04904         -0.56
0.04908         -0.16
0.04912         0.24
0.04916         0.6
0.0492  0.9
0.04924         1.04
0.04928         1
0.04932         0.8
0.04936         0.5
0.0494  0.1
0.04944         -0.32
0.04948         -0.68
0.04952         -0.9
0.04956         -0.98
0.0496  -0.94
0.04964         -0.68
0.04968         -0.34
0.04972         0.08
0.04976         0.48
0.0498  0.8
0.04984         1.02
0.04988         1.04
0.04992         0.92
0.04996         0.64
0.05    0.26
0.05004         -0.16
0.05008         -0.54
0.05012         -0.84
0.05016         -0.98
0.0502  -0.98
0.05024         -0.82
0.05028         -0.5
0.05032         -0.08
0.05036         0.32
0.0504  0.7
0.05044         0.94
0.05048         1.08
0.05052         1
0.05056         0.78
0.0506  0.42
0.05064         0.04
0.05068         -0.4
0.05072         -0.76
0.05076         -0.96
0.0508  -1
0.05084         -0.9
0.05088         -0.64
0.05092         -0.28
0.05096         0.16
0.051   0.58
0.05104         0.86
0.05108         1.04
0.05112         1.04
0.05116         0.88
0.0512  0.58
0.05124         0.2
0.05128         -0.26
0.05132         -0.62
0.05136         -0.9
0.0514  -1.02
0.05144         -0.98
0.05148         -0.76
0.05152         -0.44
0.05156         -0.02
0.0516  0.4
0.05164         0.76
0.05168         1
0.05172         1.08
0.05176         0.96
0.0518  0.72
0.05184         0.34
0.05188         -0.06
0.05192         -0.48
0.05196         -0.8
0.052   -0.98
0.05204         -1
0.05208         -0.86
0.05212         -0.58
0.05216         -0.18
0.0522  0.26
0.05224         0.62
0.05228         0.94
0.05232         1.06
0.05236         1.02
0.0524  0.84
0.05244         0.52
0.05248         0.1
0.05252         -0.32
0.05256         -0.7
0.0526  -0.96
0.05264         -1.02
0.05268         -0.94
0.05272         -0.7
0.05276         -0.34
0.0528  0.08
0.05284         0.5
0.05288         0.84
0.05292         1.04
0.05296         1.06
0.053   0.94
0.05304         0.66
0.05308         0.26
0.05312         -0.16
0.05316         -0.56
0.0532  -0.86
0.05324         -1
0.05328         -0.98
0.05332         -0.82
0.05336         -0.5
0.0534  -0.1
0.05344         0.34
0.05348         0.72
0.05352         0.96
0.05356         1.08
0.0536  1.02
0.05364         0.78
0.05368         0.42
0.05372         0.04
0.05376         -0.42
0.0538  -0.76
0.05384         -0.98
0.05388         -1
0.05392         -0.9
0.05396         -0.64
0.054   -0.28
0.05404         0.16
0.05408         0.56
0.05412         0.88
0.05416         1.08
0.0542  1.06
0.05424         0.88
0.05428         0.58
0.05432         0.2
0.05436         -0.24
0.0544  -0.64
0.05444         -0.9
0.05448         -1.04
0.05452         -0.98
0.05456         -0.76
0.0546  -0.42
0.05464         0
0.05468         0.42
0.05472         0.78
0.05476         1.02
0.0548  1.08
0.05484         0.98
0.05488         0.7
0.05492         0.36
0.05496         -0.04
0.055   -0.46
0.05504         -0.8
0.05508         -0.98
0.05512         -1.02
0.05516         -0.86
0.0552  -0.6
0.05524         -0.2
0.05528         0.24
0.05532         0.64
0.05536         0.92
0.0554  1.08
0.05544         1.06
0.05548         0.84
0.05552         0.5
0.05556         0.12
0.0556  -0.32
0.05564         -0.7
0.05568         -0.96
0.05572         -1.04
0.05576         -0.94
0.0558  -0.72
0.05584         -0.34
0.05588         0.06
0.05592         0.5
0.05596         0.84
0.056   1.06
0.05604         1.08
0.05608         0.96
0.05612         0.66
0.05616         0.28
0.0562  -0.16
0.05624         -0.56
0.05628         -0.86
0.05632         -1.02
0.05636         -1
0.0564  -0.82
0.05644         -0.52
0.05648         -0.1
0.05652         0.32
0.05656         0.72
0.0566  0.98
0.05664         1.08
0.05668         1.04
0.05672         0.8
0.05676         0.44
0.0568  0.02
0.05684         -0.42
0.05688         -0.76
0.05692         -1
0.05696         -1.04
0.057   -0.92
0.05704         -0.66
0.05708         -0.26
0.05712         0.16
0.05716         0.58
0.0572  0.9
0.05724         1.08
0.05728         1.06
0.05732         0.9
0.05736         0.6
0.0574  0.2
0.05744         -0.24
0.05748         -0.64
0.05752         -0.92
0.05756         -1.02
0.0576  -1
0.05764         -0.8
0.05768         -0.44
0.05772         0
0.05776         0.42
0.0578  0.8
0.05784         1.02
0.05788         1.1
0.05792         0.96
0.05796         0.72
0.058   0.36
0.05804         -0.06
0.05808         -0.5
0.05812         -0.82
0.05816         -1
0.0582  -1.04
0.05824         -0.86
0.05828         -0.6
0.05832         -0.2
0.05836         0.24
0.0584  0.64
0.05844         0.96
0.05848         1.1
0.05852         1.06
0.05856         0.86
0.0586  0.52
0.05864         0.1
0.05868         -0.34
0.05872         -0.7
0.05876         -0.96
0.0588  -1.04
0.05884         -0.94
0.05888         -0.74
0.05892         -0.34
0.05896         0.08
0.059   0.5
0.05904         0.84
0.05908         1.06
0.05912         1.08
0.05916         0.94
0.0592  0.66
0.05924         0.28
0.05928         -0.16
0.05932         -0.56
0.05936         -0.86
0.0594  -1.04
0.05944         -1
0.05948         -0.84
0.05952         -0.54
0.05956         -0.12
0.0596  0.36
0.05964         0.72
0.05968         1
0.05972         1.08
0.05976         1.02
0.0598  0.8
0.05984         0.46
0.05988         0.02
0.05992         -0.4
0.05996         -0.76
0.06    -1
0.06004         -1.04
0.06008         -0.94
0.06012         -0.66
0.06016         -0.26
0.0602  0.16
0.06024         0.58
0.06028         0.9
0.06032         1.08
0.06036         1.08
0.0604  0.92
0.06044         0.6
0.06048         0.18
0.06052         -0.26
0.06056         -0.62
0.0606  -0.92
0.06064         -1.04
0.06068         -1
0.06072         -0.78
0.06076         -0.44
0.0608  0
0.06084         0.42
0.06088         0.8
0.06092         1.02
0.06096         1.08
0.061   1
0.06104         0.74
0.06108         0.36
0.06112         -0.08
0.06116         -0.5
0.0612  -0.82
0.06124         -1.02
0.06128         -1.02
0.06132         -0.88
0.06136         -0.58
0.0614  -0.2
0.06144         0.24
0.06148         0.66
0.06152         0.94
0.06156         1.1
