# 2b
# Vin           divVin            Iin [A]              dIin [A]
27.4e-3         10e-3             -258e-6               2e-6
186e-3          50e-3             -247e-6               2e-6
679e-3          200e-3            -181e-6               2e-6
1.28            200e-3            1e-6                  1e-6
1.79            500e-3            1e-6                  1e-6
2.48            500e-4            2e-6                  1e-6
3.00            500e-3            2e-6                  1e-6
3.65            1                 3e-6                  1e-6
4.10            1                 3e-6                  1e-6
4.62            1                 4e-6                  1e-6
943e-3          200e-3            -149e-6               2e-6
1.07            200e-3            -119e-6               1e-6
423e-3          100e-3            -218e-6               2e-6
1.15            200e-3            -12e-6                1e-6
1.11            200e-3            -47e-6                1e-6
